<?xml version="1.0" standalone="no"?>
<!DOCTYPE svg PUBLIC "-//W3C//DTD SVG 20010904//EN"
 "http://www.w3.org/TR/2001/REC-SVG-20010904/DTD/svg10.dtd">
<svg version="1.0" xmlns="http://www.w3.org/2000/svg"
 width="260.000000pt" height="260.000000pt" viewBox="0 0 260.000000 260.000000"
 preserveAspectRatio="xMidYMid meet">
<metadata>
Created by potrace 1.11, written by Peter Selinger 2001-2013
</metadata>
<g transform="translate(0.000000,260.000000) scale(0.100000,-0.100000)"
fill="#000000" stroke="none">
<path d="M1131 2590 c-556 -78 -987 -483 -1107 -1041 -26 -118 -26 -380 0
-498 59 -273 167 -474 360 -667 193 -193 394 -301 667 -360 118 -26 380 -26
498 0 273 59 474 167 667 360 193 193 301 394 360 667 14 62 18 127 18 249 0
122 -4 187 -18 249 -59 273 -167 474 -360 667 -190 189 -384 296 -646 355 -99
23 -340 33 -439 19z m429 -150 c376 -91 682 -352 823 -701 63 -157 81 -253 81
-439 0 -139 -4 -180 -23 -259 -110 -447 -435 -772 -882 -882 -136 -33 -382
-33 -518 0 -447 110 -772 435 -882 882 -33 136 -33 382 0 518 111 447 447 783
882 880 133 29 138 30 294 26 96 -3 167 -10 225 -25z"/>
<path d="M800 1930 l0 -150 460 0 460 0 0 150 0 150 -75 0 -75 0 0 -50 0 -50
-105 0 -105 0 0 50 0 50 -100 0 -100 0 0 -50 0 -50 -105 0 -105 0 0 50 0 50
-75 0 -75 0 0 -150z"/>
<path d="M850 1638 c0 -51 -40 -767 -46 -825 l-5 -53 -75 0 -74 0 0 -50 0 -50
230 0 230 0 0 38 c0 63 29 143 65 179 29 29 39 33 85 33 46 0 56 -4 85 -33 36
-36 65 -116 65 -179 l0 -38 230 0 230 0 0 50 0 50 -74 0 -75 0 -5 53 c-6 58
-46 774 -46 825 l0 32 -410 0 -410 0 0 -32z m481 -197 c27 -27 29 -35 29 -100
l0 -71 -100 0 -100 0 0 71 c0 65 2 73 29 100 23 23 38 29 71 29 33 0 48 -6 71
-29z"/>
</g>
</svg>
