<?xml version="1.0" encoding="UTF-8"?>
<svg width="20px" height="20px" viewBox="0 0 20 20" version="1.1" xmlns="http://www.w3.org/2000/svg" xmlns:xlink="http://www.w3.org/1999/xlink">
    <!-- Generator: Sketch 54.1 (76490) - https://sketchapp.com -->
    <title>ArchaeologicalSite-Selected</title>
    <desc>Created with Sketch.</desc>
    <g id="ArchaeologicalSite-Selected" stroke="none" stroke-width="1" fill="none" fill-rule="evenodd">
        <circle id="path9" stroke="#FFBA00" fill="#FFFFFF" fill-rule="nonzero" cx="10" cy="10" r="9.5"></circle>
        <path d="M15,10.9599928 L15,11 L17,11 L17,14 L3,14 L3,11 L5,11 L5,10.9599928 C6.14112016,10.7746846 7,9.96758316 7,9 L7.05000906,9 C7.28164422,7.85887984 8.29052104,7 9.5,7 L10.5,7 C11.709479,7 12.7183558,7.85887984 12.9499909,9 L13,9 C13,9.96758316 13.8588798,10.7746846 15,10.9599928 Z" id="Combined-Shape" fill="#FFBA00"></path>
    </g>
</svg>