<?xml version="1.0" encoding="UTF-8"?>
<svg width="20px" height="20px" viewBox="0 0 20 20" version="1.1" xmlns="http://www.w3.org/2000/svg" xmlns:xlink="http://www.w3.org/1999/xlink">
    <!-- Generator: Sketch 54.1 (76490) - https://sketchapp.com -->
    <title>FortressRuin-Selected</title>
    <desc>Created with Sketch.</desc>
    <g id="FortressRuin-Selected" stroke="none" stroke-width="1" fill="none" fill-rule="evenodd">
        <circle id="path9" stroke="#FFBA00" fill="#FFFFFF" fill-rule="nonzero" cx="10" cy="10" r="9.5"></circle>
        <g id="Group" transform="translate(5.000000, 4.000000)" fill="#FFBA00" fill-rule="nonzero">
            <path d="M2.61513153,2.5801491 L1.98371391,2.60553815 L1.97890073,2.60553815 C1.77928192,2.61390816 1.64308484,2.62702119 1.53863071,2.64552822 C1.36409662,2.67073126 1.23730931,2.70672233 1.13440343,2.77994136 C1.04749336,2.84178647 0.907245182,2.90172507 0.783442053,2.95249386 C0.706671759,2.99025193 0.619448833,3.03479901 0.582892696,3.04335502 C0.496231308,3.06362906 0.33879204,3.17163015 0.224093852,3.28494155 C0.220082865,3.28866155 0.2153499,3.29238156 0.211579572,3.29582257 C0.210825506,3.29658517 0.20917298,3.29675257 0.208370782,3.29768257 L0.0830274339,3.42483239 L0.067384584,3.44120042 L0.0313659195,3.47570348 L0.0313659195,3.47756349 L0.00160439486,3.50843954 L0.00160439486,7.19938355 L0.00160439486,10.5197777 L5.32907052e-15,10.8903276 L0.00160439486,10.8903276 L1.98985874,10.8903276 L3.97812112,10.8903276 L3.99536836,10.8903276 L3.99536836,10.5579264 L3.99536836,10.5504864 L4.01574418,10.1635871 C4.03066505,9.88101538 4.06082767,9.63055664 4.09411886,9.38798431 C4.1137727,9.24999996 4.13864082,9.11935333 4.16463202,8.99018541 C4.19671992,8.83038322 4.22944957,8.67074844 4.27117186,8.5324479 C4.28376636,8.49255083 4.29427514,8.44921275 4.30719052,8.41074788 C4.30759162,8.40981788 4.30799272,8.40795788 4.30879492,8.40702788 C4.3590927,8.25882282 4.4202041,8.1354395 4.48271132,8.01467879 C4.54544316,7.89411337 4.60892104,7.78038347 4.68012409,7.68954091 C4.72633066,7.63541482 4.77223239,7.57948452 4.82113435,7.53332854 C4.85217939,7.50533549 4.88450795,7.48050444 4.91670815,7.4552084 C4.92874111,7.44590838 4.94093451,7.43735237 4.95272682,7.42795935 C4.99805097,7.39438629 5.04412919,7.36778825 5.08747192,7.34621221 C5.13095102,7.32398517 5.17812825,7.30585014 5.22535361,7.28808711 C5.31523181,7.26372106 5.40964243,7.24800403 5.56377664,7.23907602 C5.73410722,7.229125 5.82356026,7.23442601 5.91003714,7.24995704 C5.95014701,7.25990806 5.989936,7.27134708 6.02911533,7.2863201 C6.10556474,7.31803316 6.17400823,7.35448922 6.28920378,7.44434598 C6.42758283,7.55229127 6.58488573,7.7400121 6.68873821,7.90026998 C6.72331292,7.95895309 6.75772719,8.01822209 6.78901288,8.08372211 C6.87682142,8.27564655 6.95788347,8.52677489 7.02402464,8.83208513 C7.02883783,8.85226616 7.03389167,8.8715172 7.03814332,8.89197723 C7.07119385,9.05181661 7.09935098,9.22576412 7.12431537,9.40420354 C7.15399667,9.63754095 7.18167248,9.87146426 7.20269005,10.1979785 L7.24496586,10.8555176 L8.5861437,10.8755126 C9.58170279,10.8913227 10.2155992,10.8708626 10.563432,10.8246415 C10.6100397,10.8209215 10.8721657,10.8209215 10.8752301,10.8172015 C10.8756312,10.8167272 10.8736257,10.8106915 10.8736257,10.8097615 C10.8742193,10.8096685 10.8816477,10.8098731 10.8816477,10.8097615 C10.8880653,10.8023215 10.8731444,10.7737705 10.8736257,10.7588904 C10.8838938,10.7488464 10.8936004,10.7374074 10.8892686,10.7261544 C10.872262,10.6822583 10.7544753,10.3516241 10.6276158,9.99050447 C10.6024268,9.91880134 10.5792433,9.87164096 10.5539741,9.80705235 L10.3957326,9.33477891 L10.3126892,9.32389789 L10.3110848,9.32203789 C10.3110848,9.32203789 10.3094804,9.32203789 10.3094804,9.32203789 C10.2235971,9.30911087 10.1860944,9.28902283 10.1214613,9.27479381 C10.0438086,9.25610078 9.94816262,9.24038375 9.88801386,9.2148087 C9.88721166,9.2142879 9.88560727,9.2138787 9.88480507,9.2129487 C9.88320068,9.2122512 9.87999189,9.2120187 9.87838749,9.2110887 C9.86683585,9.20736869 9.85544464,9.20550869 9.843893,9.20020768 C9.84315498,9.19985428 9.84148641,9.20057038 9.84068421,9.20020768 C9.72885789,9.14598858 9.63782453,9.06964475 9.51479151,8.94409452 C9.36236597,8.78855175 9.19887012,8.55290794 9.15129981,8.4209686 C9.14183388,8.39474256 9.09811412,8.33968646 9.08078665,8.3047184 C9.07838006,8.30006839 9.07517127,8.29634838 9.07276468,8.29197738 C9.05583831,8.25849732 9.02639767,8.21841425 9.00698449,8.18299048 C8.94216694,8.07044168 8.89401103,7.96907151 8.81270029,7.86148892 C8.80788711,7.8531189 8.80323437,7.84437689 8.79705744,7.83609987 C8.7965681,7.83546747 8.79625525,7.83516987 8.79545305,7.83423987 C8.70778892,7.72121677 8.63337708,7.60407376 8.57297162,7.48548925 C8.57258656,7.48475455 8.57216942,7.48455925 8.57136722,7.48362925 C8.56414744,7.46977223 8.56230239,7.4557292 8.55572437,7.44187218 C8.50518593,7.33593569 8.46132178,7.2286321 8.4350819,7.12399762 C8.42786212,7.09367956 8.41767421,7.08623955 8.41005334,7.0603855 C8.38029181,6.95569522 8.35085117,6.88106259 8.31604382,6.82607159 C8.27986472,6.76887649 8.19608322,6.7168243 8.12019534,6.67167272 C8.11297557,6.66795271 8.11177227,6.6633027 8.10455249,6.6589317 C8.06323932,6.63056665 8.04382615,6.60861861 7.97450827,6.56993054 C7.81907449,6.48325439 7.72348465,6.41954927 7.64705128,6.34106644 C7.58086999,6.2650853 7.52567078,6.17799065 7.4512028,6.02500538 C7.44398302,6.01068335 7.43227094,5.99431532 7.42456984,5.9796213 C7.42136105,5.97404129 7.41815226,5.96874028 7.41518413,5.96148627 C7.41037095,5.95069825 7.4000226,5.94139823 7.39480832,5.93061021 C7.32726329,5.8089846 7.25310816,5.6973658 7.1707626,5.59275922 C7.17022513,5.59208032 7.1699604,5.59182921 7.1691582,5.59089921 C7.1691582,5.59089921 7.16755381,5.58903921 7.16755381,5.58903921 C7.1207857,5.52998411 7.07304693,5.46535829 7.03124442,5.42556352 C7.02964003,5.42463352 7.02803563,5.42184351 7.02643124,5.41998351 C6.91743667,5.31819483 6.80056453,5.14000652 6.72717149,4.98768155 C6.71858797,4.96982552 6.70438908,4.95001648 6.69740996,4.93318345 C6.69420117,4.92304644 6.68842535,4.92100043 6.68489568,4.91142141 C6.64237922,4.79996072 6.5861532,4.71454937 6.52978279,4.64803565 C6.51069049,4.62236761 6.49111687,4.58981755 6.47491248,4.57902953 C6.47250589,4.57716953 6.45902897,4.57716953 6.45453667,4.57530952 C6.45423183,4.57511422 6.45293227,4.57549552 6.45293227,4.57530952 C6.4457125,4.57065951 6.43817184,4.55726749 6.43103228,4.55354748 C6.43094404,4.55351028 6.42942789,4.55358468 6.42942789,4.55354748 C6.42220811,4.55075748 6.34614375,4.55075748 6.30878542,4.54982748 C6.30818377,4.54972518 6.30477443,4.54993908 6.30397223,4.54982748 C6.09563354,4.5069544 5.76439017,4.5035134 5.13827508,4.51169741 L5.11789927,4.51169741 C5.11308608,4.51175321 5.11308608,4.51163231 5.10851356,4.51169741 L3.92871378,4.52806544 L3.84567832,4.29737853 L3.81118383,4.20292757 C3.81118383,4.20292757 3.81118383,4.20106756 3.81118383,4.20106756 C3.80179812,4.17484152 3.78390912,4.15475348 3.77356077,4.13020144 C3.77195638,4.12648143 3.76874759,4.12276142 3.76714319,4.11932042 C3.73513551,4.04203728 3.69542674,3.97025976 3.6512016,3.90498294 C3.65091281,3.90457374 3.65149039,3.90405294 3.6512016,3.90312294 C3.6503994,3.90126293 3.64879501,3.89940293 3.64799281,3.89754293 C3.63363347,3.87745489 3.61590491,3.85262385 3.59945986,3.83216381 C3.56849504,3.79384774 3.49459662,3.72440452 3.45061213,3.67958774 C3.39084842,3.61857964 3.35075459,3.56701104 3.26729397,3.49249931 C2.91393403,3.17694046 2.76180531,3.0284378 2.68915029,2.9166888 C2.66436239,2.86823571 2.63917339,2.81923393 2.63427998,2.77137604 L2.61513153,2.5801491 Z M1.55128137,4.3929269 L2.0072183,4.3929269 L2.46315523,4.3929269 L2.4224036,4.89425358 C2.40916734,5.06024028 2.38453988,5.22141886 2.34876187,5.37742664 C2.31354541,5.53168601 2.26786026,5.68053277 2.21088018,5.82244172 C2.21039886,5.82337172 2.21007798,5.82523173 2.20927579,5.82616173 C2.19997029,5.84903977 2.19804502,5.84606376 2.18889997,5.8679188 C2.10427616,6.07117066 2.01849719,6.24907997 1.99931665,6.25299528 C1.98303204,6.24927527 1.90258769,6.08273988 1.82070739,5.90243116 C1.80241729,5.85025807 1.78404697,5.80001008 1.76583709,5.74076898 C1.76566863,5.74023888 1.76600555,5.73983898 1.76583709,5.73890897 C1.74674479,5.67910987 1.72877557,5.61842726 1.71096679,5.55544755 C1.71043734,5.55358755 1.71016459,5.55172754 1.70936239,5.54986754 C1.68690086,5.46607439 1.66869098,5.38165814 1.64983934,5.2973907 C1.64125583,5.25935363 1.63082726,5.22224656 1.62320639,5.1847675 C1.61133387,5.12459639 1.6009053,5.06638759 1.59344486,5.01221499 C1.57443278,4.89682039 1.55878993,4.7878242 1.5558218,4.70160375 L1.55421741,4.68709572 L1.55100862,4.62711061 L1.55128137,4.3929269 Z" id="path820"></path>
            <path d="M4.83043182,10.4801131 C4.83043182,9.92514395 4.94069385,9.0441162 5.04709732,8.74888718 C5.18655132,8.36196 5.35693003,8.1942528 5.61056882,8.1942528 C6.05915762,8.1942528 6.30033828,8.80987669 6.36196308,10.112251 L6.39878395,10.8898161 L5.61461991,10.8898161 L4.83045588,10.8898161 L4.83043182,10.4801131 Z" id="path831"></path>
            <path d="M0.00130758181,1.52164914 C0.00130758181,1.46305904 0.0585844782,1.32537229 0.128576204,1.2156042 C0.203020125,1.09886109 0.240073625,0.968409763 0.217844734,0.901245045 C0.195704085,0.834377927 0.229637036,0.713012713 0.299243707,0.610461432 C0.364943676,0.513676161 0.418642772,0.374520016 0.418642772,0.301226587 C0.418642772,0.212783431 0.45377902,0.174671964 0.52297657,0.187868687 C0.580333686,0.198842706 0.66084222,0.183218679 0.701826487,0.153551626 C0.757418768,0.113189555 0.776350628,0.179591672 0.776350628,0.414463586 L0.776350628,0.729566742 L1.19368582,0.729566742 L1.61101299,0.729566742 L1.61101299,0.38806084 C1.61101299,0.200237709 1.63483825,0.0295080077 1.6638778,0.00866667096 C1.69291734,-0.0121653658 1.86734715,0.00587666604 2.05139531,0.0486567415 L2.38603999,0.126590879 L2.38603999,0.42807881 L2.38603999,0.729557442 L2.80336716,0.729557442 L3.22070235,0.729557442 L3.22150454,0.366698702 C3.22216235,0.106921344 3.23883201,0.0332838144 3.2802254,0.107507245 C3.31199241,0.164516346 3.33846493,0.355036482 3.33894625,0.530853292 C3.34055064,1.1001538 3.39373633,1.27005579 3.58562998,1.31891808 C3.68052994,1.34309812 3.78573011,1.42252956 3.81939833,1.49546959 C3.87916204,1.62494442 3.83480052,1.62808783 1.94091668,1.62808783 C0.233816485,1.62808783 0.00120329614,1.6153468 0.00120329614,1.52161194 L0.00130758181,1.52164914 Z" id="path833"></path>
        </g>
    </g>
</svg>