<?xml version="1.0" encoding="UTF-8"?>
<svg width="20px" height="20px" viewBox="0 0 20 20" version="1.1" xmlns="http://www.w3.org/2000/svg" xmlns:xlink="http://www.w3.org/1999/xlink">
    <!-- Generator: Sketch 54.1 (76490) - https://sketchapp.com -->
    <title>PalaceRuin-Selected</title>
    <desc>Created with Sketch.</desc>
    <g id="PalaceRuin-Selected" stroke="none" stroke-width="1" fill="none" fill-rule="evenodd">
        <circle id="path9" stroke="#FFBA00" fill="#FFFFFF" fill-rule="nonzero" cx="10" cy="10" r="9.5"></circle>
        <g id="Group" transform="translate(5.000000, 4.000000)" fill="#FFBA00" fill-rule="nonzero">
            <path d="M9.76996262e-15,9.87244843 L9.76996262e-15,8.76158462 L0.297657318,8.1066136 L0.595314636,7.45163342 L0.527661661,6.91719905 L0.460008687,6.38276468 L0.579560481,5.90842922 L0.699120161,5.43409376 L0.513862977,5.06109223 L0.328613679,4.6880907 L0.51650444,4.3286785 C0.633241303,4.1053794 0.704395201,3.91233579 0.704395201,3.81895034 L0.704395201,3.66865269 L1.51241457,3.66865269 L2.32043394,3.66865269 L2.32043394,4.12581834 L2.32043394,4.58298399 L2.73479659,4.58298399 L3.14916711,4.58298399 L3.14962444,4.30627991 C3.14987676,4.15408672 3.16160958,3.94836034 3.17572366,3.84911426 L3.20142864,3.66865269 L3.95352786,3.66865269 L4.70562708,3.66865269 L4.94947742,3.95482535 L5.19332776,4.24100716 L5.44541788,4.21545848 L5.69751589,4.18990981 L5.85363025,4.47584438 L6.00974461,4.76176979 L6.28872246,4.79235494 C6.44215593,4.80920425 6.63528231,4.82312324 6.71790094,4.82330639 C6.85289938,4.82361773 6.87073516,4.83887368 6.89400368,4.97403442 C6.90827547,5.05672423 6.92018176,5.19209559 6.92049716,5.27480371 C6.92207415,5.60859397 6.92443964,5.61070014 7.51474732,5.77910163 C8.01249344,5.92105704 8.0848695,5.95579042 8.30438685,6.15802789 L8.54604516,6.38066767 L8.37189789,6.44037282 C7.99095172,6.57100074 7.87297692,6.8498934 7.84158688,7.69404367 L7.81950899,8.28847623 L8.63355247,8.28847623 L9.44759596,8.28847623 L9.44759596,8.071926 C9.44759596,7.91405532 9.46399668,7.85537578 9.50815247,7.85537578 C9.56752623,7.85537578 9.61970102,8.02179932 9.67730856,8.39511219 C9.70561557,8.57835756 9.72296249,8.59267031 9.98627291,8.64939937 C10.286004,8.71395785 10.2762976,8.70058829 10.2766761,9.04965282 L10.2770072,9.37124565 L10.6185128,9.6155606 L10.9600184,9.85987555 L10.9716882,10.4216168 L10.9833579,10.983358 L9.04066883,10.983358 L7.09797977,10.983358 L7.07337869,10.4419733 C7.02338803,9.34428676 6.75622974,8.70155896 6.22479907,8.40054243 C6.00750528,8.27746923 5.94763477,8.26613258 5.51038208,8.26530843 C5.05392163,8.26445681 5.02107288,8.27171849 4.75649297,8.42249232 C4.21171306,8.73381073 3.97003897,9.32161345 3.9087807,10.4843713 L3.88252378,10.983358 L1.94128554,10.983358 L9.76996262e-15,10.983358 L9.76996262e-15,9.87244843 Z M3.13756833,7.74706404 C3.09412219,6.76550035 2.88312849,6.41165574 2.34117928,6.41165574 C1.79923795,6.41165574 1.5882206,6.76550035 1.54479811,7.74706404 L1.52082783,8.2884396 L2.34116351,8.2884396 L3.16149919,8.2884396 L3.13756833,7.74706404 Z" id="path4522"></path>
            <path d="M3.14919865,2.30872133 L3.14919865,1.86312126 L3.95212434,0.931556052 L4.75505003,-2.22044605e-16 L4.91553266,0.341262564 C5.07104777,0.67196684 5.0817792,0.683468323 5.26247887,0.712991239 C5.36503069,0.729748974 5.55935558,0.768209348 5.69431459,0.798428214 L5.93967884,0.853463178 L6.04791571,1.23844237 L6.1561447,1.62343071 L6.54745172,1.84428484 L6.93875873,2.06514811 L6.98969558,2.3495809 C7.0176872,2.50601389 7.04142093,2.66108246 7.04244598,2.69415838 C7.04402297,2.74150127 6.62809122,2.75432139 5.0967212,2.75432139 L3.14919077,2.75432139 L3.14919865,2.30872133 Z" id="path4524"></path>
            <path d="M0.542185761,2.63834505 C0.453543018,2.52876961 0.45108291,2.50724096 0.497556876,2.24745029 C0.54029337,2.00851063 0.537218235,1.94811869 0.474375087,1.78616388 L0.401991136,1.59981421 L0.594999237,1.26272735 L0.787999453,0.925649638 L1.16016966,0.925649638 L1.53233987,0.925649638 L1.92642239,1.61114171 C2.28624475,2.23703852 2.32050491,2.31653245 2.32050491,2.52547301 L2.32050491,2.75431224 L1.47827269,2.75431224 C0.641867452,2.75431224 0.635386013,2.75351556 0.542225186,2.63834505 L0.542185761,2.63834505 Z" id="path4526"></path>
        </g>
    </g>
</svg>