<?xml version="1.0" encoding="UTF-8"?>
<svg width="20px" height="20px" viewBox="0 0 20 20" version="1.1" xmlns="http://www.w3.org/2000/svg" xmlns:xlink="http://www.w3.org/1999/xlink">
    <!-- Generator: Sketch 54.1 (76490) - https://sketchapp.com -->
    <title>Tower-Selected</title>
    <desc>Created with Sketch.</desc>
    <g id="Tower-Selected" stroke="none" stroke-width="1" fill="none" fill-rule="evenodd">
        <circle id="path9" stroke="#FFBA00" fill="#FFFFFF" fill-rule="nonzero" cx="10" cy="10" r="9.5"></circle>
        <path d="M6.17857128,4 L6.17857128,6.35714323 L13.2500007,6.35714323 L13.2500007,4 L12.0714279,4 L12.0714279,4.78571456 L10.4999992,4.78571456 L10.4999992,4 L8.92857077,4 L8.92857077,4.78571456 L7.35714289,4.78571456 L7.35714289,4 L6.17857128,4 Z M6.57142844,7.14285745 L6.17857128,14.2142859 L5,14.2142859 L5,15 L8.53571372,15 C8.53571372,14.2142859 8.75339174,13.0357142 9.71428511,13.0357142 C10.7151711,13.0566995 10.8928566,14.2142859 10.8928566,15 L14.4285725,15 L14.4285725,14.2142859 L13.2500007,14.2142859 L12.857142,7.14285745 L6.57142844,7.14285745 Z M9.71428511,8.714286 C10.4999992,8.714286 10.4999992,9.50000045 10.4999992,9.50000045 L10.4999992,10.2857148 L8.92857077,10.2857148 L8.92857077,9.50000045 C8.92857077,9.50000045 8.92857077,8.714286 9.71428511,8.714286 Z" id="watchtower" fill="#FFBA00" fill-rule="nonzero"></path>
    </g>
</svg>